{
	"version": "2.0.0",
	"tasks": [
		{
			"type": "shell",
			"label": "shell: g++ build active file",
			"command": "/usr/bin/g++",
			"args": [
				"-g",
				"*.cpp",
				"-o",
				"bin_tree",
				"-std=c++11"
			],
			"options": {
				"cwd": "${fileDirname}"
			},
			"problemMatcher": [
				"$gcc"
			],
			"group": "build"
		}
	]
}